{
  "rate_value": 0,
  "app_id": "com.spyhuman",
  "user": {},
  "allComment": [
    {
      "status": "publish",
      "comment": "test",
      "nb_of_likes": 0,
      "nb_of_dislikes": 0,
      "created_at": 1539503801,
      "updated_at": 1539503801,
      "user_id": "player_250534",
      "product_id": "com.spyhuman",
      "id": "5bc2f6b970a9b",
      "avatar": "",
    },
    {
      "status": "publish",
      "comment": "11111",
      "product_id": "com.spyhuman",
      "nb_of_likes": 0,
      "nb_of_dislikes": 0,
      "created_at": 1539438022,
      "updated_at": 1539500196,
      "user_id": "player_255227",
      "id": "5bc1f5c68a119",
      "avatar": "",
      "name": ""
    }
  ],
  "count_message": 2,
  "count_rate": 2,
  "average_rate": 3
}